%YAML 1.1
%TAG !u! tag:unity3d.com,2011:
--- !u!1001 &100100000
Prefab:
  m_ObjectHideFlags: 1
  serializedVersion: 2
  m_Modification:
    m_TransformParent: {fileID: 0}
    m_Modifications: []
    m_RemovedComponents: []
  m_ParentPrefab: {fileID: 0}
  m_RootGameObject: {fileID: 1846935353382392}
  m_IsPrefabParent: 1
--- !u!1 &1846935353382392
GameObject:
  m_ObjectHideFlags: 0
  m_PrefabParentObject: {fileID: 0}
  m_PrefabInternal: {fileID: 100100000}
  serializedVersion: 5
  m_Component:
  - component: {fileID: 4238972432904886}
  - component: {fileID: 114865604805597740}
  m_Layer: 0
  m_Name: LightGun
  m_TagString: Untagged
  m_Icon: {fileID: 0}
  m_NavMeshLayer: 0
  m_StaticEditorFlags: 0
  m_IsActive: 1
--- !u!4 &4238972432904886
Transform:
  m_ObjectHideFlags: 1
  m_PrefabParentObject: {fileID: 0}
  m_PrefabInternal: {fileID: 100100000}
  m_GameObject: {fileID: 1846935353382392}
  m_LocalRotation: {x: -0, y: -0, z: -0, w: 1}
  m_LocalPosition: {x: -0.025, y: -1.15, z: 0}
  m_LocalScale: {x: 1, y: 1, z: 1}
  m_Children: []
  m_Father: {fileID: 0}
  m_RootOrder: 0
  m_LocalEulerAnglesHint: {x: 0, y: 0, z: 0}
--- !u!114 &114865604805597740
MonoBehaviour:
  m_ObjectHideFlags: 1
  m_PrefabParentObject: {fileID: 0}
  m_PrefabInternal: {fileID: 100100000}
  m_GameObject: {fileID: 1846935353382392}
  m_Enabled: 1
  m_EditorHideFlags: 0
  m_Script: {fileID: 11500000, guid: 94fa48e7072239f47834dd4b65af9e4f, type: 3}
  m_Name: 
  m_EditorClassIdentifier: 
  WeaponLookDirection: {x: 0, y: 0, z: 0}
  WeaponFireArc: 360
  ProjectilePrefab: {fileID: 1990412137341680, guid: dcff6022a4efb46469b1384a768bbc23,
    type: 2}
  ShotSpeed: 18
  ShotDeviationDegrees: 3
  ProjectileLifetime: 10
  ShotWinddown: 0.05
  MaxShotDelay: 0
  ReloadTime: 0.5
  AmmoMax: 4
  AmmoCurrent: 4
